%YAML 1.1
%TAG !u! tag:unity3d.com,2011:
--- !u!1 &1157240214459594436
GameObject:
  m_ObjectHideFlags: 0
  m_CorrespondingSourceObject: {fileID: 0}
  m_PrefabInstance: {fileID: 0}
  m_PrefabAsset: {fileID: 0}
  serializedVersion: 6
  m_Component:
  - component: {fileID: 1157240214459594434}
  - component: {fileID: 1157240214459594435}
  - component: {fileID: 1157240214459594433}
  - component: {fileID: 64767499515466543}
  m_Layer: 8
  m_Name: Player
  m_TagString: Untagged
  m_Icon: {fileID: 0}
  m_NavMeshLayer: 0
  m_StaticEditorFlags: 0
  m_IsActive: 1
--- !u!4 &1157240214459594434
Transform:
  m_ObjectHideFlags: 0
  m_CorrespondingSourceObject: {fileID: 0}
  m_PrefabInstance: {fileID: 0}
  m_PrefabAsset: {fileID: 0}
  m_GameObject: {fileID: 1157240214459594436}
  m_LocalRotation: {x: 0, y: 0, z: 0, w: 1}
  m_LocalPosition: {x: 0, y: -7.8, z: 0}
  m_LocalScale: {x: 1, y: 1, z: 1}
  m_Children: []
  m_Father: {fileID: 0}
  m_RootOrder: 0
  m_LocalEulerAnglesHint: {x: 0, y: 0, z: 0}
--- !u!212 &1157240214459594435
SpriteRenderer:
  m_ObjectHideFlags: 0
  m_CorrespondingSourceObject: {fileID: 0}
  m_PrefabInstance: {fileID: 0}
  m_PrefabAsset: {fileID: 0}
  m_GameObject: {fileID: 1157240214459594436}
  m_Enabled: 1
  m_CastShadows: 0
  m_ReceiveShadows: 0
  m_DynamicOccludee: 1
  m_MotionVectors: 1
  m_LightProbeUsage: 1
  m_ReflectionProbeUsage: 1
  m_RenderingLayerMask: 1
  m_RendererPriority: 0
  m_Materials:
  - {fileID: 10754, guid: 0000000000000000f000000000000000, type: 0}
  m_StaticBatchInfo:
    firstSubMesh: 0
    subMeshCount: 0
  m_StaticBatchRoot: {fileID: 0}
  m_ProbeAnchor: {fileID: 0}
  m_LightProbeVolumeOverride: {fileID: 0}
  m_ScaleInLightmap: 1
  m_ReceiveGI: 1
  m_PreserveUVs: 0
  m_IgnoreNormalsForChartDetection: 0
  m_ImportantGI: 0
  m_StitchLightmapSeams: 1
  m_SelectedEditorRenderState: 0
  m_MinimumChartSize: 4
  m_AutoUVMaxDistance: 0.5
  m_AutoUVMaxAngle: 89
  m_LightmapParameters: {fileID: 0}
  m_SortingLayerID: 0
  m_SortingLayer: 0
  m_SortingOrder: 0
  m_Sprite: {fileID: 21300000, guid: b0e290c36631045d5bffdeba8e4536d8, type: 3}
  m_Color: {r: 1, g: 1, b: 1, a: 1}
  m_FlipX: 0
  m_FlipY: 0
  m_DrawMode: 0
  m_Size: {x: 0.99, y: 0.75}
  m_AdaptiveModeThreshold: 0.5
  m_SpriteTileMode: 0
  m_WasSpriteAssigned: 1
  m_MaskInteraction: 0
  m_SpriteSortPoint: 0
--- !u!114 &1157240214459594433
MonoBehaviour:
  m_ObjectHideFlags: 0
  m_CorrespondingSourceObject: {fileID: 0}
  m_PrefabInstance: {fileID: 0}
  m_PrefabAsset: {fileID: 0}
  m_GameObject: {fileID: 1157240214459594436}
  m_Enabled: 1
  m_EditorHideFlags: 0
  m_Script: {fileID: 11500000, guid: a53caa288c29e4dc7be4a1c9140d9f13, type: 3}
  m_Name: 
  m_EditorClassIdentifier: 
  moveSpeed: 10
  padding: 0.5
  health: 200
  deathSound: {fileID: 8300000, guid: 491f9bb5d89cbe64598f111cbf84512c, type: 3}
  deathSoundVolume: 1
  shootSound: {fileID: 8300000, guid: c3956911ab76607499f2b1ad53d492eb, type: 3}
  shootSoundVolume: 0.1
  laserPrefab: {fileID: 2515254617199258430, guid: 342883e46480a4c20aedae2ab2ff684d,
    type: 3}
  projectileSpeed: 10
  projectileFiringPeriod: 0.05
--- !u!60 &64767499515466543
PolygonCollider2D:
  m_ObjectHideFlags: 0
  m_CorrespondingSourceObject: {fileID: 0}
  m_PrefabInstance: {fileID: 0}
  m_PrefabAsset: {fileID: 0}
  m_GameObject: {fileID: 1157240214459594436}
  m_Enabled: 1
  m_Density: 1
  m_Material: {fileID: 0}
  m_IsTrigger: 1
  m_UsedByEffector: 0
  m_UsedByComposite: 0
  m_Offset: {x: 0, y: 0}
  m_SpriteTilingProperty:
    border: {x: 0, y: 0, z: 0, w: 0}
    pivot: {x: 0.5, y: 0.5}
    oldSize: {x: 0.99, y: 0.75}
    newSize: {x: 0.99, y: 0.75}
    adaptiveTilingThreshold: 0.5
    drawMode: 0
    adaptiveTiling: 0
  m_AutoTiling: 0
  m_Points:
    m_Paths:
    - - {x: 0.48582557, y: 0.074540615}
      - {x: 0.35756975, y: -0.018854141}
      - {x: 0.11123849, y: 0.12031984}
      - {x: 0.079953544, y: 0.37958765}
      - {x: -0.08665117, y: 0.375}
      - {x: -0.117476776, y: 0.12958717}
      - {x: -0.3475697, y: -0.026743889}
      - {x: -0.49499997, y: 0.095}
      - {x: -0.49499997, y: -0.24499999}
      - {x: -0.39747676, y: -0.22077847}
      - {x: -0.13582562, y: -0.28123856}
      - {x: -0.095, y: -0.375}
      - {x: 0.08665123, y: -0.375}
      - {x: 0.14296041, y: -0.27190018}
      - {x: 0.39261618, y: -0.22077847}
      - {x: 0.45499998, y: -0.265}
      - {x: 0.46288946, y: -0.2595873}
